<?xml version="1.0" encoding="UTF-8"?>
<svg width="30px" height="30px" viewBox="0 0 30 30" version="1.1" xmlns="http://www.w3.org/2000/svg" xmlns:xlink="http://www.w3.org/1999/xlink">
        <path d="M17.9003906,4.02148438 C18.141276,4.02148438 18.3447266,3.93359375 18.5107422,3.7578125 C18.6767578,3.58203125 18.7597656,3.37044271 18.7597656,3.12304688 L18.7597656,0.974609375 C18.7597656,0.727213542 18.6767578,0.515625 18.5107422,0.33984375 C18.3447266,0.1640625 18.141276,0.076171875 17.9003906,0.076171875 C17.6529948,0.076171875 17.4414062,0.1640625 17.265625,0.33984375 C17.0898438,0.515625 17.0019531,0.727213542 17.0019531,0.974609375 L17.0019531,3.12304688 C17.0019531,3.37044271 17.0898438,3.58203125 17.265625,3.7578125 C17.4414062,3.93359375 17.6529948,4.02148438 17.9003906,4.02148438 Z M23.6474609,6.39941406 C23.8916016,6.39615885 24.1015625,6.30664062 24.2773438,6.13085938 L25.78125,4.62695312 C25.9700521,4.47070312 26.0644531,4.26236979 26.0644531,4.00195312 C26.0644531,3.75455729 25.9749349,3.54296875 25.7958984,3.3671875 C25.616862,3.19140625 25.4036458,3.10351562 25.15625,3.10351562 C24.9283854,3.10351562 24.7298177,3.19791667 24.5605469,3.38671875 L23.046875,4.88085938 C22.8710938,5.04361979 22.7832031,5.25195312 22.7832031,5.50585938 C22.7832031,5.75976562 22.8710938,5.96809896 23.046875,6.13085938 C23.203125,6.31315104 23.4033203,6.40266927 23.6474609,6.39941406 Z M11.8603516,5.34472656 C12.0719401,5.15266927 12.1777344,4.9296875 12.1777344,4.67578125 C12.1777344,4.42838542 12.093099,4.22005208 11.9238281,4.05078125 L11.2597656,3.38671875 C11.0644531,3.2109375 10.8496094,3.12304688 10.6152344,3.12304688 C10.3613281,3.12304688 10.1497396,3.20768229 9.98046875,3.37695312 C9.81119792,3.54622396 9.7265625,3.75455729 9.7265625,4.00195312 C9.7265625,4.26236979 9.81119792,4.47070312 9.98046875,4.62695312 L10.6542969,5.30078125 C10.8235677,5.47005208 11.0123698,5.56445312 11.2207031,5.58398438 C11.4355469,5.61653646 11.648763,5.53678385 11.8603516,5.34472656 Z M17.6074219,22.0097656 C19.000651,21.9641927 20.1790365,21.4384766 21.1425781,20.4326172 C22.1061198,19.4267578 22.5878906,18.2239583 22.5878906,16.8242188 C22.5878906,16.0494792 22.4446615,15.3528646 22.1582031,14.734375 C22.9785156,13.7317708 23.3886719,12.5761719 23.3886719,11.2675781 C23.3886719,10.2845052 23.141276,9.37141927 22.6464844,8.52832031 C22.1516927,7.68522135 21.4827474,7.01627604 20.6396484,6.52148438 C19.7965495,6.02669271 18.8834635,5.77929688 17.9003906,5.77929688 C16.2727865,5.77929688 14.9186198,6.38802083 13.8378906,7.60546875 C13.0045573,7.14973958 12.0638021,6.921875 11.015625,6.921875 C9.54427083,6.921875 8.23730469,7.37760417 7.09472656,8.2890625 C5.95214844,9.20052083 5.21809896,10.3691406 4.89257812,11.7949219 C3.74023438,12.0683594 2.78971354,12.6738281 2.04101562,13.6113281 C1.29231771,14.5488281 0.91796875,15.6197917 0.91796875,16.8242188 C0.91796875,18.2174479 1.40299479,19.413737 2.37304688,20.4130859 C3.34309896,21.4124349 4.52473958,21.9446615 5.91796875,22.0097656 C6.04166667,22.0097656 6.10351562,21.9511719 6.10351562,21.8339844 L6.10351562,20.4375 C6.10351562,20.3138021 6.04166667,20.2519531 5.91796875,20.2519531 C5.02604167,20.2063802 4.26595052,19.8499349 3.63769531,19.1826172 C3.0094401,18.5152995 2.6953125,17.7291667 2.6953125,16.8242188 C2.6953125,15.9583333 2.98990885,15.2063802 3.57910156,14.5683594 C4.16829427,13.9303385 4.89908854,13.5592448 5.77148438,13.4550781 L6.328125,13.4160156 C6.46484375,13.4160156 6.53320312,13.3541667 6.53320312,13.2304688 L6.6015625,12.6542969 C6.71223958,11.5279948 7.1891276,10.585612 8.03222656,9.82714844 C8.87532552,9.0686849 9.86979167,8.68945312 11.015625,8.68945312 C12.1484375,8.68945312 13.1429036,9.0686849 13.9990234,9.82714844 C14.8551432,10.585612 15.3417969,11.5279948 15.4589844,12.6542969 L15.5371094,13.2597656 C15.5371094,13.389974 15.5957031,13.4550781 15.7128906,13.4550781 L17.4023438,13.4550781 C18.3333333,13.4550781 19.1389974,13.788737 19.8193359,14.4560547 C20.4996745,15.1233724 20.8398438,15.9127604 20.8398438,16.8242188 C20.8398438,17.7291667 20.5240885,18.5152995 19.8925781,19.1826172 C19.2610677,19.8499349 18.499349,20.2063802 17.6074219,20.2519531 C17.4707031,20.2519531 17.4023438,20.3138021 17.4023438,20.4375 L17.4023438,21.8339844 C17.4023438,21.9511719 17.4707031,22.0097656 17.6074219,22.0097656 Z M21.0546875,13.1914062 C20.0585938,12.1888021 18.8411458,11.6875 17.4023438,11.6875 L17.0800781,11.6875 C16.7740885,10.4830729 16.1848958,9.45768229 15.3125,8.61132812 C16.0091146,7.94075521 16.8717448,7.60546875 17.9003906,7.60546875 C18.9160156,7.60546875 19.7851562,7.96191406 20.5078125,8.67480469 C21.2304688,9.38769531 21.5917969,10.2519531 21.5917969,11.2675781 C21.5917969,11.9186198 21.4127604,12.5598958 21.0546875,13.1914062 Z M28.1835938,12.1660156 C28.4309896,12.1660156 28.6442057,12.078125 28.8232422,11.9023438 C29.0022786,11.7265625 29.0917969,11.514974 29.0917969,11.2675781 C29.0917969,11.0266927 29.0039062,10.8232422 28.828125,10.6572266 C28.6523438,10.4912109 28.4375,10.4082031 28.1835938,10.4082031 L26.0644531,10.4082031 C25.8040365,10.4082031 25.5859375,10.4912109 25.4101562,10.6572266 C25.234375,10.8232422 25.1464844,11.0266927 25.1464844,11.2675781 C25.1464844,11.514974 25.2376302,11.7233073 25.4199219,11.8925781 C25.6022135,12.0748698 25.8170573,12.1660156 26.0644531,12.1660156 L28.1835938,12.1660156 Z M8.17382812,22.0976563 C8.50585938,22.0976563 8.74674479,21.8730469 8.89648438,21.4238281 L9.98046875,18.0742188 C10.0651042,17.8203125 10.0406901,17.5875651 9.90722656,17.3759766 C9.77376302,17.164388 9.58333333,17.0358073 9.3359375,16.9902344 C9.10807292,16.9186198 8.88834635,16.9397786 8.67675781,17.0537109 C8.46516927,17.1676432 8.32356771,17.3417969 8.25195312,17.5761719 L7.17773438,20.9355469 C7.15820312,21.0332031 7.1484375,21.1276042 7.1484375,21.21875 C7.1484375,21.3619792 7.18098958,21.4954427 7.24609375,21.6191406 C7.44791667,21.938151 7.75716146,22.0976563 8.17382812,22.0976563 Z M10.7714844,25.1445312 C10.9277344,25.1445312 11.0611979,25.1184896 11.171875,25.0664062 C11.3802083,24.9817708 11.5299479,24.7832031 11.6210938,24.4707031 L13.4960938,18.0742187 C13.5677083,17.8268229 13.5481771,17.6005859 13.4375,17.3955078 C13.3268229,17.1904297 13.1542969,17.0553385 12.9199219,16.9902344 C12.672526,16.9186198 12.4430339,16.938151 12.2314453,17.0488281 C12.0198568,17.1595052 11.8782552,17.3352865 11.8066406,17.5761719 L9.89257812,24.0214844 C9.86653646,24.1516927 9.85351562,24.2330729 9.85351562,24.265625 C9.85351562,24.4348958 9.90885417,24.6009115 10.0195312,24.7636719 C10.1302083,24.9264323 10.296224,25.0403646 10.5175781,25.1054687 C10.6347656,25.1315104 10.719401,25.1445312 10.7714844,25.1445312 Z M15.1074219,22.0195312 C15.5110677,22.0195312 15.7845052,21.8079427 15.9277344,21.3847656 L17.0019531,18.0742187 C17.0800781,17.8333333 17.0572917,17.608724 16.9335938,17.4003906 C16.8098958,17.1920573 16.6308594,17.0553385 16.3964844,16.9902344 C16.1490885,16.9186198 15.9261068,16.938151 15.7275391,17.0488281 C15.5289714,17.1595052 15.390625,17.3352865 15.3125,17.5761719 L14.2480469,20.90625 C14.2154948,21.0494792 14.1992188,21.1438802 14.1992188,21.1894531 C14.1992188,21.3522135 14.2529297,21.5100911 14.3603516,21.6630859 C14.4677734,21.8160807 14.6289062,21.9251302 14.84375,21.9902344 C14.9348958,22.0097656 15.0227865,22.0195312 15.1074219,22.0195312 Z M25.1855469,19.4707031 C25.4329427,19.4707031 25.6315104,19.3763021 25.78125,19.1875 C25.9700521,19.0182292 26.0644531,18.8098958 26.0644531,18.5625 C26.0644531,18.3151042 25.9700521,18.1035156 25.78125,17.9277344 L25.1074219,17.2832031 C24.9446615,17.1009115 24.7428385,17.0097656 24.5019531,17.0097656 C24.2610677,17.0097656 24.054362,17.0976562 23.8818359,17.2734375 C23.7093099,17.4492188 23.6230469,17.6608073 23.6230469,17.9082031 C23.6230469,18.1425781 23.7076823,18.3509115 23.8769531,18.5332031 L24.5605469,19.1875 C24.7102865,19.3763021 24.9186198,19.4707031 25.1855469,19.4707031 Z M7.61230469,24.6708984 C7.84342448,24.5830078 7.99804688,24.4283854 8.07617188,24.2070312 C8.18033854,23.9791667 8.18847656,23.7545573 8.10058594,23.5332031 C8.01269531,23.311849 7.85807292,23.1588542 7.63671875,23.0742188 C7.42838542,22.9635417 7.21191406,22.953776 6.98730469,23.0449219 C6.76269531,23.1360677 6.59830729,23.2988281 6.49414062,23.5332031 C6.39648438,23.7089844 6.38997396,23.9238281 6.47460938,24.1777344 C6.57877604,24.405599 6.73828125,24.561849 6.953125,24.6464844 C7.16145833,24.750651 7.3811849,24.7587891 7.61230469,24.6708984 Z M14.3457031,24.7246094 C14.4108073,24.7246094 14.514974,24.7050781 14.6582031,24.6660156 C14.8925781,24.5748698 15.0520833,24.421875 15.1367188,24.2070313 C15.2213542,23.9791667 15.2213542,23.7594401 15.1367188,23.5478516 C15.0520833,23.336263 14.905599,23.1783854 14.6972656,23.0742188 C14.4628906,22.9635417 14.235026,22.953776 14.0136719,23.0449219 C13.7923177,23.1360677 13.6263021,23.2988281 13.515625,23.5332031 C13.4700521,23.6178385 13.4472656,23.7285156 13.4472656,23.8652344 C13.4472656,23.9954427 13.4700521,24.1028646 13.515625,24.1875 C13.6067708,24.4023438 13.7630208,24.5553385 13.984375,24.6464844 C14.0950521,24.6985677 14.2154948,24.7246094 14.3457031,24.7246094 Z M9.97070312,27.9179688 C10.0358073,27.9179688 10.139974,27.8984375 10.2832031,27.859375 C10.5110677,27.7747396 10.6754557,27.616862 10.7763672,27.3857422 C10.8772786,27.1546224 10.875651,26.9251302 10.7714844,26.6972656 C10.6673177,26.469401 10.5110677,26.3115234 10.3027344,26.2236328 C10.094401,26.1357422 9.87955729,26.1373698 9.65820312,26.2285156 C9.45638021,26.3066406 9.31152344,26.4287109 9.22363281,26.5947266 C9.13574219,26.7607422 9.09179688,26.9186198 9.09179688,27.0683594 C9.09179688,27.2050781 9.10807292,27.3059896 9.140625,27.3710938 C9.23177083,27.5989583 9.38802083,27.7552083 9.609375,27.8398438 C9.70703125,27.8919271 9.82747396,27.9179688 9.97070312,27.9179688 Z" id="path-1"></path>
</svg>