<?xml version="1.0" encoding="UTF-8"?>
<svg width="30px" height="30px" viewBox="0 0 30 30" version="1.1" xmlns="http://www.w3.org/2000/svg" xmlns:xlink="http://www.w3.org/1999/xlink">
        <path d="M14.8095703,18.3867188 L17.5244141,11.1210938 L16.0498047,11.1210938 L13.3251953,18.3867188 L14.8095703,18.3867188 Z M8.54980469,18.2207031 L8.54980469,14.4316406 L8.56933594,14.4316406 L10.7080078,18.2207031 L12.7783203,18.2207031 L12.7783203,11.2871094 L10.7568359,11.2871094 L10.7568359,14.9882812 L10.7373047,14.9882812 L8.71582031,11.2871094 L6.52832031,11.2871094 L6.52832031,18.2207031 L8.54980469,18.2207031 Z M18.4716797,18.2207031 L18.7744141,17.234375 L20.9814453,17.234375 L21.2744141,18.2207031 L23.4912109,18.2207031 L20.9619141,11.2871094 L18.8720703,11.2871094 L16.3134766,18.2207031 L18.4716797,18.2207031 Z M20.5615234,15.7402344 L19.2431641,15.7402344 L19.9072266,13.6113281 L19.9365234,13.6113281 L20.5615234,15.7402344 Z" id="path-1"></path>
</svg>