<?xml version="1.0" encoding="UTF-8"?>
<svg width="30px" height="30px" viewBox="0 0 30 30" version="1.1" xmlns="http://www.w3.org/2000/svg" xmlns:xlink="http://www.w3.org/1999/xlink">
        <path d="M6.65039062,15.4570313 C6.70898438,15.4570313 6.77408854,15.4049479 6.84570312,15.3007813 C7.09309896,14.7604167 7.4625651,14.3177083 7.95410156,13.9726563 C8.44563802,13.6276042 8.984375,13.4322917 9.5703125,13.3867188 L10.1269531,13.3085938 C10.2571615,13.3085938 10.3222656,13.2467448 10.3222656,13.1230469 L10.3808594,12.6054688 C10.4915365,11.4856771 10.9651693,10.5498047 11.8017578,9.79785156 C12.6383464,9.04589844 13.6230469,8.66992188 14.7558594,8.66992188 C15.875651,8.66992188 16.8554688,9.04101563 17.6953125,9.78320313 C18.5351562,10.5253906 19.0136719,11.453125 19.1308594,12.5664063 L19.1992187,13.1621094 C19.1992187,13.2858073 19.2708333,13.3476563 19.4140625,13.3476563 L21.0644531,13.3476563 C21.735026,13.3476563 22.34375,13.5266927 22.890625,13.8847656 C23.4375,14.2428385 23.844401,14.7148438 24.1113281,15.3007813 C24.1829427,15.4049479 24.2578125,15.4570313 24.3359375,15.4570313 L25.8105469,15.4570313 C25.9342448,15.4570313 25.9863281,15.3789063 25.9667969,15.2226563 C25.7389323,14.6432292 25.5794271,14.2753906 25.4882812,14.1191406 C26.2434896,13.4420573 26.7643229,12.5501302 27.0507812,11.4433594 L27.2265625,10.7597656 C27.2526042,10.6946615 27.2477214,10.6393229 27.2119141,10.59375 C27.1761068,10.5481771 27.1354167,10.5253906 27.0898438,10.5253906 L26.4453125,10.3007813 C25.5143229,10.0338542 24.8063151,9.48372396 24.3212891,8.65039063 C23.836263,7.81705729 23.7076823,6.92838542 23.9355469,5.984375 L24.0722656,5.37890625 C24.124349,5.28125 24.078776,5.19986979 23.9355469,5.13476563 L23.0566406,4.890625 C21.9173177,4.61067708 20.8007812,4.70182292 19.7070312,5.1640625 C18.6132812,5.62630208 17.7571615,6.36197917 17.1386719,7.37109375 C16.311849,7.05208333 15.5175781,6.89257813 14.7558594,6.89257813 C13.3105469,6.89257813 12.023112,7.34830729 10.8935547,8.25976563 C9.7639974,9.17122396 9.03645833,10.3333333 8.7109375,11.7460938 C7.83203125,11.9544271 7.06217448,12.374349 6.40136719,13.0058594 C5.7405599,13.6373698 5.27994792,14.3925781 5.01953125,15.2714844 L5.01953125,15.2226563 C4.97395833,15.3789063 5.01627604,15.4570313 5.14648438,15.4570313 L6.65039062,15.4570313 Z M24.3359375,12.7910156 C23.3789062,12.0032552 22.2884115,11.609375 21.0644531,11.609375 L20.7324219,11.609375 C20.4003906,10.2421875 19.7070312,9.13867188 18.6523438,8.29882812 C19.0169271,7.69986979 19.5068359,7.23763021 20.1220703,6.91210938 C20.7373047,6.58658854 21.3867188,6.45638021 22.0703125,6.52148438 C21.9986979,7.60872396 22.2428385,8.62597656 22.8027344,9.57324219 C23.3626302,10.5205078 24.1341146,11.2220052 25.1171875,11.6777344 C24.9609375,12.0423177 24.7005208,12.4134115 24.3359375,12.7910156 Z M25.1367188,18.6894531 C25.3776042,18.6894531 25.5794271,18.6015625 25.7421875,18.4257813 C25.9049479,18.25 25.9863281,18.0384115 25.9863281,17.7910156 C25.9863281,17.5501302 25.9049479,17.3483073 25.7421875,17.1855469 C25.5794271,17.0227865 25.3776042,16.9414063 25.1367188,16.9414063 L5.75195312,16.9414063 C5.50455729,16.9414063 5.29459635,17.0227865 5.12207031,17.1855469 C4.94954427,17.3483073 4.86328125,17.5501302 4.86328125,17.7910156 C4.86328125,18.0384115 4.95442708,18.2434896 5.13671875,18.40625 C5.27994792,18.5950521 5.48502604,18.6894531 5.75195312,18.6894531 L25.1367188,18.6894531 Z M22.4414062,21.8730469 C22.6888021,21.8730469 22.898763,21.7916667 23.0712891,21.6289063 C23.2438151,21.4661458 23.3300781,21.2675781 23.3300781,21.0332031 C23.3300781,20.7792969 23.2454427,20.5660807 23.0761719,20.3935547 C22.906901,20.2210286 22.6953125,20.1347656 22.4414062,20.1347656 L3.05664062,20.1347656 C2.80924479,20.1347656 2.59602865,20.2226563 2.41699219,20.3984375 C2.23795573,20.5742188 2.1484375,20.7858073 2.1484375,21.0332031 C2.1484375,21.2675781 2.23632812,21.4661458 2.41210938,21.6289063 C2.58789062,21.7916667 2.80273438,21.8730469 3.05664062,21.8730469 L22.4414062,21.8730469 Z M26.9824219,25.1054688 C27.2233073,25.1054688 27.4283854,25.0175781 27.5976562,24.8417969 C27.7669271,24.6660156 27.8515625,24.4544271 27.8515625,24.2070313 C27.8515625,23.9661458 27.7669271,23.7643229 27.5976562,23.6015625 C27.4283854,23.4388021 27.2233073,23.3574219 26.9824219,23.3574219 L7.55859375,23.3574219 C7.31119792,23.3574219 7.10123698,23.4388021 6.92871094,23.6015625 C6.7561849,23.7643229 6.66992188,23.9661458 6.66992188,24.2070313 C6.66992188,24.4544271 6.76106771,24.6595052 6.94335938,24.8222656 C7.11914062,25.0110677 7.32421875,25.1054688 7.55859375,25.1054688 L26.9824219,25.1054688 Z" id="path-1"></path>
</svg>