<?xml version="1.0" encoding="UTF-8"?>
<svg width="30px" height="30px" viewBox="0 0 30 30" version="1.1" xmlns="http://www.w3.org/2000/svg" xmlns:xlink="http://www.w3.org/1999/xlink">
        <polygon id="path-1" points="17.5195312 22.5 19.2773438 20.7421875 13.5351562 15 19.2773438 9.2578125 17.5195312 7.5 10.0195312 15"></polygon>
</svg>