<?xml version="1.0" encoding="UTF-8"?>
<svg width="30px" height="30px" viewBox="0 0 30 30" version="1.1" xmlns="http://www.w3.org/2000/svg" xmlns:xlink="http://www.w3.org/1999/xlink">
        <path d="M20.7421875,13.3986175 L22.5,15.1267281 L15,22.5 L7.5,15.1267281 L9.2578125,13.3986175 L15,19.0437788 L20.7421875,13.3986175 Z M20.7421875,7.5 L22.5,9.2281106 L15,16.6013825 L7.5,9.2281106 L9.2578125,7.5 L15,13.1451613 L20.7421875,7.5 Z" id="path-1"></path>
</svg>