<?xml version="1.0" encoding="UTF-8"?>
<svg width="30px" height="30px" viewBox="0 0 30 30" version="1.1" xmlns="http://www.w3.org/2000/svg" xmlns:xlink="http://www.w3.org/1999/xlink">
        <polygon id="path-1" points="27.5 13.75 8.0175 13.75 10.88375 10.88375 9.11625 9.11625 3.2325 15 9.11625 20.8825 10.88375 19.11625 8.0175 16.25 27.5 16.25"></polygon>
</svg>