<?xml version="1.0" encoding="UTF-8"?>
<svg width="30px" height="30px" viewBox="0 0 30 30" version="1.1" xmlns="http://www.w3.org/2000/svg" xmlns:xlink="http://www.w3.org/1999/xlink">
        <polygon id="path-1" points="20.88375 9.11625 19.11625 10.88375 21.9825 13.75 2.5 13.75 2.5 16.25 21.9825 16.25 19.11625 19.11625 20.88375 20.8825 26.7675 15"></polygon>
</svg>