<?xml version="1.0" encoding="UTF-8"?>
<svg width="30px" height="30px" viewBox="0 0 30 30" version="1.1" xmlns="http://www.w3.org/2000/svg" xmlns:xlink="http://www.w3.org/1999/xlink">
        <path d="M23,17 L15,26 L7,17 L23,17 Z M15,4 L23,13 L7,13 L15,4 Z" id="path-1"></path>
</svg>