<?xml version="1.0" encoding="UTF-8"?>
<svg width="30px" height="30px" viewBox="0 0 30 30" version="1.1" xmlns="http://www.w3.org/2000/svg" xmlns:xlink="http://www.w3.org/1999/xlink">
        <path d="M11.5500417,5 L11.5500417,25 L9.5,25 L9.5,5 L11.5500417,5 Z M20.0961587,9.29289322 L21.5457571,10.7071068 L17.146051,15 L21.5457571,19.2928932 L20.0961587,20.7071068 L14.2462552,15 L20.0961587,9.29289322 Z" id="path-1"></path>
</svg>