<?xml version="1.0" encoding="UTF-8"?>
<svg width="30px" height="30px" viewBox="0 0 30 30" version="1.1" xmlns="http://www.w3.org/2000/svg" xmlns:xlink="http://www.w3.org/1999/xlink">
        <path d="M3.33334,26.66672 L20.00004,26.66672 L20.00004,23.33338 L3.33334,23.33338 L3.33334,26.66672 Z M20.00004,10.00002 L3.33334,10.00002 L3.33334,13.33336 L20.00004,13.33336 L20.00004,10.00002 Z M3.33334,3.33334 L3.33334,6.66668 L26.66672,6.66668 L26.66672,3.33334 L3.33334,3.33334 Z M3.33334,20.00004 L26.66672,20.00004 L26.66672,16.6667 L3.33334,16.6667 L3.33334,20.00004 Z" id="path-1"></path>
</svg>