<?xml version="1.0" encoding="UTF-8"?>
<svg width="30px" height="30px" viewBox="0 0 30 30" version="1.1" xmlns="http://www.w3.org/2000/svg" xmlns:xlink="http://www.w3.org/1999/xlink">
        <path d="M27.5555556,6.75 C27.8044444,6.75 28,6.94555556 28,7.19444444 L28,7.19444444 L28,20.6344444 C28,20.8388889 27.8666667,20.9988889 27.68,21.0611111 L27.68,21.0611111 L22.6666667,22.75 L17.3333333,20.8833333 L12.5866667,22.7233333 L12.4444444,22.75 C12.1955556,22.75 12,22.5544444 12,22.3055556 L12,22.3055556 L12,8.86555556 C12,8.66111111 12.1333333,8.50111111 12.32,8.43888889 L12.32,8.43888889 L17.3333333,6.75 L22.6666667,8.61666667 L27.4133333,6.77666667 Z M17.3333333,8.52777778 L17.3333333,19.0966667 L22.6666667,20.9722222 L22.6666667,10.4033333 L17.3333333,8.52777778 Z M7.25,10 L7.25,13.75 L11,13.75 L11,16.25 L7.25,16.25 L7.25,20 L4.75,20 L4.75,16.25 L1,16.25 L1,13.75 L4.75,13.75 L4.75,10 L7.25,10 Z" id="path-1"></path>
</svg>