<?xml version="1.0" encoding="UTF-8"?>
<svg width="30px" height="30px" viewBox="0 0 30 30" version="1.1" xmlns="http://www.w3.org/2000/svg" xmlns:xlink="http://www.w3.org/1999/xlink">
        <path d="M17,17 C18.1045695,17 19,17.8954305 19,19 C19,20.1045695 18.1045695,21 17,21 C15.8954305,21 15,20.1045695 15,19 C15,17.8954305 15.8954305,17 17,17 Z M7.25,10 L7.25,13.75 L11,13.75 L11,16.25 L7.25,16.25 L7.25,20 L4.75,20 L4.75,16.25 L1,16.25 L1,13.75 L4.75,13.75 L4.75,10 L7.25,10 Z M15,10 L15,11.538 L17,11.0232737 L20,11.0232737 L21.5,11.3238388 L23,11.0232737 L23,10 L25,10 L25,16 L28,16 L28,17 L20.4648015,16.9998796 C19.7731656,15.8043432 18.480515,15 17,15 C15.5569469,15 14.2923713,15.7641532 13.5888482,16.9098847 C13.2415997,16.7549813 13,16.405705 13,16 L13,10 L15,10 Z" id="path-1"></path>
</svg>