<?xml version="1.0" encoding="UTF-8"?>
<svg width="30px" height="30px" viewBox="0 0 30 30" version="1.1" xmlns="http://www.w3.org/2000/svg" xmlns:xlink="http://www.w3.org/1999/xlink">
        <path d="M20.23125,22.46 L22.01375,24.2425 C20.395,25.53875 18.415,26.39875 16.25,26.6375 L16.25,26.6375 L16.25,24.1125 C17.72875,23.89875 19.08625,23.3175 20.23125,22.46 L20.23125,22.46 Z M15,2.5 L15,11.7125 L11.1225,7.63 C8.24,9.0625 6.25,12.03125 6.25,15.4625 C6.25,19.86125 9.51625,23.50375 13.75,24.1125 L13.75,24.1125 L13.75,26.6375 C8.13375,26.0125 3.75,21.2425 3.75,15.4625 C3.75,11.32375 6.00375,7.70875 9.34125,5.755 L9.34125,5.755 L6.25,2.5 L15,2.5 Z M23.71,16.25 L23.71,16.25125 L26.21,16.25125 C26.0475,18.59625 25.1675,20.74375 23.7825,22.47625 L23.7825,22.47625 L21.99875,20.69375 C22.945,19.43 23.56125,17.90875 23.71,16.25 L23.71,16.25 Z M23.4375,8.02 C24.87,9.6425 25.78375,11.63375 26.11,13.75 L26.11,13.75 L23.575,13.75 C23.27625,12.2475 22.59,10.83875 21.5625,9.675 L21.5625,9.675 Z" id="path-1"></path>
</svg>