<?xml version="1.0" encoding="UTF-8"?>
<svg width="30px" height="30px" viewBox="0 0 30 30" version="1.1" xmlns="http://www.w3.org/2000/svg" xmlns:xlink="http://www.w3.org/1999/xlink">
        <path d="M13.25,28.25 C9.62875,28.25 7,25.35875 7,21.375 L7,10.75 C7,5.76125 10.4925,2 15.125,2 C19.7575,2 23.25,5.76125 23.25,10.75 L23.25,19.5 L20.75,19.5 L20.75,10.75 C20.75,7.12875 18.38375,4.5 15.125,4.5 C11.86625,4.5 9.5,7.12875 9.5,10.75 L9.5,21.375 C9.5,23.55375 10.66,25.75 13.25,25.75 C15.84,25.75 17,23.55375 17,21.375 L17,12 C17,11.2475 16.8175,9.5 15.125,9.5 C13.4325,9.5 13.25,11.2475 13.25,12 L13.25,20.75 L10.75,20.75 L10.75,12 C10.75,9.00875 12.50875,7 15.125,7 C17.74125,7 19.5,9.00875 19.5,12 L19.5,21.375 C19.5,25.35875 16.87125,28.25 13.25,28.25 Z" id="path-1"></path>
</svg>