<?xml version="1.0" encoding="UTF-8"?>
<svg width="30px" height="30px" viewBox="0 0 30 30" version="1.1" xmlns="http://www.w3.org/2000/svg" xmlns:xlink="http://www.w3.org/1999/xlink">
        <path d="M23.75,10 L23.75,25 C23.75,26.3236 22.716656,27.409888 21.4141587,27.4946733 L21.25,27.5 L8.75,27.5 C7.4264,27.5 6.340112,26.466656 6.25532672,25.1641587 L6.25,25 L6.25,10 L23.75,10 Z M21.25,12.5 L8.75,12.5 L8.75,25 L21.25125,25 L21.25,12.5 Z M13.75,15 L13.75,22.5 L11.25,22.5 L11.25,15 L13.75,15 Z M18.75,15 L18.75,22.5 L16.25,22.5 L16.25,15 L18.75,15 Z M18.75,3.75 L18.75,6.25 L26.25,6.25 L26.25,8.75 L3.75,8.75 L3.75,6.25 L11.25,6.25 L11.25,3.75 L18.75,3.75 Z" id="path-1"></path>
</svg>