<?xml version="1.0" encoding="UTF-8"?>
<svg width="30px" height="30px" viewBox="0 0 30 30" version="1.1" xmlns="http://www.w3.org/2000/svg" xmlns:xlink="http://www.w3.org/1999/xlink">
        <path d="M23.75,10 L18.75,15 L22.5,15 C22.5,19.1375 19.1375,22.5 15,22.5 C13.7375,22.5 12.5375,22.1875 11.5,21.625 L9.675,23.45 C11.2125,24.425 13.0375,25 15,25 C20.525,25 25,20.525 25,15 L28.75,15 L23.75,10 Z M7.5,15 C7.5,10.8625 10.8625,7.5 15,7.5 C16.2625,7.5 17.4625,7.8125 18.5,8.375 L20.325,6.55 C18.7875,5.575 16.9625,5 15,5 C9.475,5 5,9.475 5,15 L1.25,15 L6.25,20 L11.25,15 L7.5,15 Z" id="path-1"></path>
</svg>