<?xml version="1.0" encoding="UTF-8"?>
<svg width="30px" height="30px" viewBox="0 0 30 30" version="1.1" xmlns="http://www.w3.org/2000/svg" xmlns:xlink="http://www.w3.org/1999/xlink">
        <path d="M17.5,5 L18,7.5 L25,7.5 L25,20 L16.25,20 L15.75,17.5 L8.75,17.5 L8.75,26.25 L6.25,26.25 L6.25,5 L17.5,5 Z M15.75,7.5 L8.75,7.5 L8.75,15 L17.5,15 L18,17.5 L22.5,17.5 L22.5,10 L16.25,10 L15.75,7.5 Z" id="path-1"></path>
</svg>