<?xml version="1.0" encoding="UTF-8"?>
<svg width="30px" height="30px" viewBox="0 0 30 30" version="1.1" xmlns="http://www.w3.org/2000/svg" xmlns:xlink="http://www.w3.org/1999/xlink">
        <path d="M7.50001,18.33337 L5.00001,18.33337 L5.00001,25.00005 L11.66669,25.00005 L11.66669,22.500045 L7.50001,22.500045 L7.50001,18.33337 Z M5.00001,11.66669 L7.50001,11.66669 L7.50001,7.50001 L11.66669,7.50001 L11.66669,5.00001 L5.00001,5.00001 L5.00001,11.66669 Z M22.500045,22.500045 L18.33337,22.500045 L18.33337,25.00005 L25.00005,25.00005 L25.00005,18.33337 L22.500045,18.33337 L22.500045,22.500045 Z M18.33337,5.00001 L18.33337,7.50001 L22.500045,7.50001 L22.500045,11.66669 L25.00005,11.66669 L25.00005,5.00001 L18.33337,5.00001 Z" id="path-1"></path>
</svg>