<?xml version="1.0" encoding="UTF-8"?>
<svg width="30px" height="30px" viewBox="0 0 30 30" version="1.1" xmlns="http://www.w3.org/2000/svg" xmlns:xlink="http://www.w3.org/1999/xlink">
        <path d="M25,6.25 L5,6.25 C3.625,6.25 2.5125,7.375 2.5125,8.75 L2.5,21.25 C2.5,22.625 3.625,23.75 5,23.75 L25,23.75 C26.375,23.75 27.5,22.625 27.5,21.25 L27.5,8.75 C27.5,7.375 26.375,6.25 25,6.25 Z M13.75,10 L16.25,10 L16.25,12.5 L13.75,12.5 L13.75,10 Z M13.75,13.75 L16.25,13.75 L16.25,16.25 L13.75,16.25 L13.75,13.75 Z M10,10 L12.5,10 L12.5,12.5 L10,12.5 L10,10 Z M10,13.75 L12.5,13.75 L12.5,16.25 L10,16.25 L10,13.75 Z M8.75,16.25 L6.25,16.25 L6.25,13.75 L8.75,13.75 L8.75,16.25 Z M8.75,12.5 L6.25,12.5 L6.25,10 L8.75,10 L8.75,12.5 Z M20,21.25 L10,21.25 L10,18.75 L20,18.75 L20,21.25 Z M20,16.25 L17.5,16.25 L17.5,13.75 L20,13.75 L20,16.25 Z M20,12.5 L17.5,12.5 L17.5,10 L20,10 L20,12.5 Z M23.75,16.25 L21.25,16.25 L21.25,13.75 L23.75,13.75 L23.75,16.25 Z M23.75,12.5 L21.25,12.5 L21.25,10 L23.75,10 L23.75,12.5 Z" id="path-1"></path>
</svg>