<?xml version="1.0" encoding="UTF-8"?>
<svg width="30px" height="30px" viewBox="0 0 30 30" version="1.1" xmlns="http://www.w3.org/2000/svg" xmlns:xlink="http://www.w3.org/1999/xlink">
        <path d="M25,2.5 L5,2.5 C3.625,2.5 2.5125,3.625 2.5125,5 L2.5,27.5 L7.5,22.5 L25,22.5 C26.375,22.5 27.5,21.375 27.5,20 L27.5,5 C27.5,3.625 26.375,2.5 25,2.5 Z M22.5,17.5 L7.5,17.5 L7.5,15 L22.5,15 L22.5,17.5 Z M22.5,13.75 L7.5,13.75 L7.5,11.25 L22.5,11.25 L22.5,13.75 Z M22.5,10 L7.5,10 L7.5,7.5 L22.5,7.5 L22.5,10 Z" id="path-1"></path>
</svg>