<?xml version="1.0" encoding="UTF-8"?>
<svg width="30px" height="30px" viewBox="0 0 30 30" version="1.1" xmlns="http://www.w3.org/2000/svg" xmlns:xlink="http://www.w3.org/1999/xlink">
        <path d="M22.7778,7.55556 L22,7.55556 L22,5.33333 L19.2867,5.33333 C18.79,3.42333 17.0644,2 15,2 C12.93556,2 11.21,3.42333 10.71333,5.33333 L8,5.33333 L8,7.55556 L7.22222,7.55556 C5.996667,7.55556 5,8.55333 5,9.77778 L5,25.3333 C5,26.5589 5.996667,27.5556 7.22222,27.5556 L22.7778,27.5556 C24.0033,27.5556 25,26.5589 25,25.3333 L25,9.77778 C25,8.55333 24.0033,7.55556 22.7778,7.55556 Z M15,4.22222 C15.8211,4.22222 16.5389,4.66889 16.9233,5.33333 L13.07556,5.33333 C13.46111,4.66889 14.17889,4.22222 15,4.22222 Z M20,10 L20,7.25 L10,7.25 L10,10 L20,10 Z M7.22222,25.3333 L7.22222,9.77778 L8,9.77778 L8,12 L22,12 L22,9.77778 L22.7778,9.77778 L22.7778,25.3333 L7.22222,25.3333 Z M17.4321,16.9601 C18.5144,16.9601 19.409,17.777 19.5422,18.8294 C20.388,19.1129 21.0002,19.9148 21,20.8595 C21,22.0399 20.0448,23 18.8707,23 L11.12912,23 C9.95501,23 9,22.0399 9,20.8595 C9,19.915 9.61223,19.1127 10.45779,18.8292 C10.57427,17.9121 11.26821,17.1749 12.16166,17.0003 C12.32507,15.9823 13.20294,15.2013 14.26094,15.2013 C14.5471,15.2013 14.75441,15.1304 14.87716,14.9912 C15.0681,14.7746 15.0364,14.4316 15.036,14.4282 C15.0223,14.3151 15.0596,14.2016 15.1379,14.1189 C15.216,14.0364 15.3269,13.9925 15.44,14.0011 C16.2876,14.061 17.02,14.6064 17.351,15.4244 C17.5613,15.9444 17.5752,16.4875 17.414,16.9601 L17.4321,16.9601 Z" id="path-1"></path>
</svg>