<?xml version="1.0" encoding="UTF-8"?>
<svg width="30px" height="30px" viewBox="0 0 30 30" version="1.1" xmlns="http://www.w3.org/2000/svg" xmlns:xlink="http://www.w3.org/1999/xlink">
        <path d="M24.9882562,9.39666074 C25.9150098,8.34380889 26.2691685,7.14871704 25.7801273,6.72799111 C25.2902463,6.30821926 24.1421172,6.82094074 23.2156785,7.87373037 C22.9331074,8.19539852 22.7111022,8.52826667 22.5425252,8.84993481 L22.5425252,8.25960148 L22.5425252,1.50939363 C22.5425252,1.22806622 22.3120176,1 22.0269273,1 C21.7421518,1 21.5115393,1.22806622 21.5115393,1.50939363 L21.5115393,8.25965333 L21.5115393,8.84998667 C21.3430673,8.52832889 21.1210621,8.19545037 20.8380711,7.87379259 C19.9119472,6.82099259 18.7639232,6.30821926 18.2739372,6.72804296 C17.784791,7.14876889 18.1390546,8.34386074 19.0658083,9.39671259 C19.9279022,10.3761837 20.9744232,10.8783378 21.5115393,10.606717 L21.5115393,12.718 C21.3430673,12.3961037 21.1210621,12.0635259 20.8380711,11.7419407 C19.9119472,10.6887881 18.7639232,10.1760148 18.2739372,10.5960978 C17.784791,11.0168341 18.1390546,12.2113037 19.0658083,13.2647259 C19.9279022,14.2443111 20.9744232,14.7458222 21.5115393,14.4744296 L21.5115393,16.585837 C21.3430673,16.2639407 21.1210621,15.9310519 20.8380711,15.6096741 C19.9119472,14.5561481 18.7639232,14.043437 18.2739372,14.4638519 C17.784791,14.8845778 18.1390546,16.0791407 19.0658083,17.1322519 C19.9279022,18.111837 20.9744232,18.6139704 21.5115393,18.3422667 L21.5115393,18.5352593 L21.5115393,19.7677778 L16.8981348,19.7677778 L16.8981348,13.2141185 L12.9225202,8.85897778 L6.54791643,8.85897778 C6.36583017,8.35808889 5.88448301,7.9967437 5.3151945,7.9967437 C4.58986939,7.9967437 4,8.57918519 4,9.29577778 C4,10.0120593 4.58981481,10.594563 5.3151945,10.594563 C5.82721302,10.594563 6.26772802,10.3010815 6.48445338,9.87765926 L12.4644128,9.87765926 L15.8674638,13.6053926 L15.8674638,20.7860444 L21.5114343,20.7860444 L21.5114343,22.0768444 L14.4852794,22.0768444 L14.4852794,17.3759556 L8.45628993,17.3759556 L6.68098309,16.2961926 C6.66915331,16.289037 6.65667273,16.2856148 6.64410818,16.2820889 C6.63520698,16.2797037 6.62628479,16.2772148 6.61752004,16.2733778 C6.6189161,16.2591704 6.62087899,16.2450667 6.62284187,16.2310667 C6.62645273,16.2051407 6.6300636,16.1793185 6.6300636,16.152563 C6.6300636,15.4359704 6.04024354,14.8535704 5.3151945,14.8535704 C4.58986939,14.8535704 4,15.4359704 4,16.152563 C4,16.8688444 4.58981481,17.4513481 5.3151945,17.4513481 C5.62666307,17.4513481 5.9102734,17.3389333 6.13558506,17.1594222 C6.13626735,17.1597333 6.13680268,17.1602519 6.13726454,17.1606667 C6.13874457,17.1623259 6.13932189,17.1630519 6.14014063,17.1635704 L8.16442919,18.3942222 L13.454304,18.3942222 L13.454304,23.0954222 L21.5115393,23.0954222 L21.5115393,24.3048148 L10.7903571,24.3048148 L10.7903571,26.9025926 L6.34530913,26.9025926 C6.10404248,26.5999852 5.73459014,26.4012889 5.3151945,26.4012889 C4.58986939,26.4012889 4,26.984 4,27.7003852 C4,28.4169778 4.58981481,29 5.3151945,29 C5.96358614,29 6.50068128,28.5322963 6.60736973,27.9211704 L11.8210175,27.9211704 L11.8210175,25.3233926 L21.7515988,25.3233926 C21.7786803,25.3233926 21.8391413,25.3223556 21.8976079,25.3213185 C21.9529255,25.3202815 22.0050941,25.3194519 22.0268223,25.3194519 C22.3119127,25.3194519 22.5425252,25.0913037 22.5425252,24.8100593 L22.5425252,18.5350519 L22.5425252,18.3420593 C23.0796413,18.613763 24.1259523,18.1116296 24.9882562,17.1320444 C25.9150098,16.0789333 26.2691685,14.8843704 25.7801273,14.4636444 C25.2902463,14.0432296 24.1421172,14.5560444 23.2156785,15.6094667 C22.9331074,15.9307407 22.7111022,16.2636296 22.5425252,16.5856296 L22.5425252,14.4742222 C23.0796413,14.7456148 24.1259523,14.2441037 24.9883612,13.2645185 C25.9150098,12.2110963 26.2691685,11.0166163 25.7802322,10.59588 C25.2903512,10.175797 24.1422222,10.6886222 23.2157835,11.7417333 C22.9331074,12.0633185 22.7112071,12.3958963 22.5426301,12.7177926 L22.5426301,10.6064993 C23.0796413,10.8782859 24.1259523,10.37608 24.9882562,9.39666074 Z M23.5002,6 C23.7715,6 23.9911,5.80280089 23.9911,5.55989224 L23.9911,2.4400979 C23.9911,2.19714622 23.7715,2 23.5002,2 C23.2286,2 23.0089,2.19714622 23.0089,2.4400979 L23.0089,5.55989224 C23.0089,5.80280089 23.2286,6 23.5002,6 Z M20.50015,6 C20.77145,6 20.99105,5.80280089 20.99105,5.55989224 L20.99105,2.4400979 C20.99105,2.19714622 20.77145,2 20.50015,2 C20.22855,2 20.00895,2.19714622 20.00895,2.4400979 L20.00895,5.55989224 C20.00895,5.80280089 20.22855,6 20.50015,6 Z" id="path-1"></path>
</svg>