<?xml version="1.0" encoding="UTF-8"?>
<svg width="30px" height="30px" viewBox="0 0 30 30" version="1.1" xmlns="http://www.w3.org/2000/svg" xmlns:xlink="http://www.w3.org/1999/xlink">
        <path d="M7.79875,0.44 C8.14625,0.03 8.7175,-0.1075 9.215,0.08875 L9.215,0.08875 L15,2.4025 L20.78625,0.08875 C21.2875,-0.1075 21.85625,0.03125 22.2025,0.44 C22.55,0.8475 22.59875,1.4325 22.3225,1.89375 L22.3225,1.89375 L19.17375,7.14 L23.505,6.27375 L23.99625,8.725 L21.0925,9.30625 C24.19125,11.31125 26.25,14.79125 26.25,18.75 C26.25,24.9525 21.2025,30 15,30 C8.7975,30 3.75,24.9525 3.75,18.75 C3.75,14.79125 5.80875,11.31125 8.90875,9.30625 L8.90875,9.30625 L6.005,8.725 L6.495,6.27375 L10.8275,7.14 L7.67875,1.89375 C7.4025,1.4325 7.45,0.8475 7.79875,0.44 Z M15,10 C10.175,10 6.25,13.925 6.25,18.75 C6.25,23.57625 10.175,27.5 15,27.5 C19.825,27.5 23.75,23.575 23.75,18.75 C23.75,13.925 19.825,10 15,10 Z M16.25,12.5 L16.25,13.75 L18.75,13.75 L18.75,16.25 L14.375,16.25 C14.03,16.25 13.75,16.53 13.75,16.875 C13.75,17.22125 14.03,17.5 14.375,17.5 L14.375,17.5 L15.625,17.5 C17.3475,17.5 18.75,18.9025 18.75,20.625 C18.75,22.13375 17.675,23.39625 16.25,23.68625 L16.25,23.68625 L16.25,25 L13.75,25 L13.75,23.75 L11.25,23.75 L11.25,21.25 L15.625,21.25 C15.97,21.25 16.25,20.97125 16.25,20.625 C16.25,20.28 15.97,20 15.625,20 L15.625,20 L14.375,20 C12.6525,20 11.25,18.5975 11.25,16.875 C11.25,15.36625 12.325,14.10375 13.75,13.81375 L13.75,13.81375 L13.75,12.5 L16.25,12.5 Z M18.26875,3.78875 L15.46375,4.91 C15.165,5.02875 14.83375,5.02875 14.535,4.91 L14.535,4.91 L14.535,4.91 L11.73125,3.78875 L13.20875,6.25 L16.7925,6.25 L18.26875,3.78875 Z" id="path-1"></path>
</svg>