<?xml version="1.0" encoding="UTF-8"?>
<svg width="30px" height="30px" viewBox="0 0 30 30" version="1.1" xmlns="http://www.w3.org/2000/svg" xmlns:xlink="http://www.w3.org/1999/xlink">
        <path d="M23,13.25 C20.6875,11.2375 17.6875,10 14.375,10 C8.5625,10 3.65,13.7875 1.925,19.025 L4.875,20 C6.1875,16.0125 9.9375,13.125 14.375,13.125 C16.8125,13.125 19.0375,14.025 20.775,15.475 L16.25,20 L27.5,20 L27.5,8.75 L23,13.25 Z" id="path-1"></path>
</svg>