<?xml version="1.0" encoding="UTF-8"?>
<svg width="30px" height="30px" viewBox="0 0 30 30" version="1.1" xmlns="http://www.w3.org/2000/svg" xmlns:xlink="http://www.w3.org/1999/xlink">
        <path d="M12.5,11.25 L12.5,6.25 L3.75,15 L12.5,23.75 L12.5,18.625 C18.75,18.625 23.125,20.625 26.25,25 C25,18.75 21.25,12.5 12.5,11.25 Z" id="path-1"></path>
</svg>