<?xml version="1.0" encoding="UTF-8"?>
<svg width="30px" height="30px" viewBox="0 0 30 30" version="1.1" xmlns="http://www.w3.org/2000/svg" xmlns:xlink="http://www.w3.org/1999/xlink">
        <path d="M25.0064,12.4504 C25.6384,13.8384 26.0004,15.3754 26.0004,17.0004 C26.0004,23.0754 21.0754,28.0004 15.0004,28.0004 C8.9244,28.0004 4.0004,23.0754 4.0004,17.0004 C4.0004,15.3754 4.3614,13.8384 4.9934,12.4504 L4.9934,12.4504 L7.2674,13.4844 C6.7794,14.5574 6.5004,15.7444 6.5004,17.0004 C6.5004,21.6944 10.3054,25.5004 15.0004,25.5004 C19.6944,25.5004 23.5004,21.6944 23.5004,17.0004 C23.5004,15.7444 23.2204,14.5574 22.7324,13.4844 L22.7324,13.4844 Z M24.144,1.9999 L25.751,10.1659 L22.965,10.6569 L22.296,7.2539 L18.941,12.0439 C17.345,14.3259 16.5,17.0039 16.5,19.7879 L16.5,19.7879 L16.5,21.0589 L13.5,21.0589 L13.5,19.7879 C13.5,17.0039 12.655,14.3259 11.059,12.0439 L11.059,12.0439 L6.877,6.0729 L9.334,4.3519 L13.516,10.3239 C14.097,11.1529 14.585,12.0299 15,12.9349 C15.415,12.0299 15.903,11.1529 16.484,10.3239 L16.484,10.3239 L19.839,5.5339 L16.412,6.0689 L15.921,3.2829 L24.144,1.9999 Z" id="path-1"></path>
</svg>