<?xml version="1.0" encoding="UTF-8"?>
<svg width="30px" height="30px" viewBox="0 0 30 30" version="1.1" xmlns="http://www.w3.org/2000/svg" xmlns:xlink="http://www.w3.org/1999/xlink">
        <path d="M15.625,10 C12.3125,10 9.3125,11.2375 7,13.25 L2.5,8.75 L2.5,20 L13.75,20 L9.225,15.475 C10.9625,14.025 13.175,13.125 15.625,13.125 C20.05,13.125 23.8125,16.0125 25.125,20 L28.0875,19.025 C26.35,13.7875 21.4375,10 15.625,10 Z" id="path-1"></path>
</svg>