<?xml version="1.0" encoding="UTF-8"?>
<svg width="30px" height="30px" viewBox="0 0 30 30" version="1.1" xmlns="http://www.w3.org/2000/svg" xmlns:xlink="http://www.w3.org/1999/xlink">
        <path d="M27,13 L27,27 L16,27 L16,13 L27,13 Z M14,19 L14,27 L3,27 L3,19 L14,19 Z M24.5,15.5 L18.5,15.5 L18.5,24.5 L24.5,24.5 L24.5,15.5 Z M11.5,21.5 L5.5,21.5 L5.5,24.5 L11.5,24.5 L11.5,21.5 Z M14,3 L14,17 L3,17 L3,3 L14,3 Z M11.5,5.5 L5.5,5.5 L5.5,14.5 L11.5,14.5 L11.5,5.5 Z M27,3 L27,11 L16,11 L16,3 L27,3 Z M24.5,5.5 L18.5,5.5 L18.5,8.5 L24.5,8.5 L24.5,5.5 Z" id="path-1"></path>
</svg>