<?xml version="1.0" encoding="UTF-8"?>
<svg width="30px" height="30px" viewBox="0 0 30 30" version="1.1" xmlns="http://www.w3.org/2000/svg" xmlns:xlink="http://www.w3.org/1999/xlink">
        <path d="M6.25,25 L6.25,26.25 L23.75,26.25 L23.75,25 L26.25,25 L26.25,26.25 C26.25,27.62875 25.12875,28.75 23.75,28.75 L23.75,28.75 L6.25,28.75 C4.87125,28.75 3.75,27.62875 3.75,26.25 L3.75,26.25 L3.75,25 L6.25,25 Z M6.25,12.5 C8.3175,12.5 10,14.1825 10,16.25 C10,18.3175 8.3175,20 6.25,20 L6.25,20 L5,20 L5,22.5 L2.5,22.5 L2.5,12.5 Z M13.75,12.5 C16.5075,12.5 18.75,14.7425 18.75,17.5 C18.75,20.2575 16.5075,22.5 13.75,22.5 L13.75,22.5 L11.25,22.5 L11.25,12.5 Z M27.5,12.5 L27.5,15 L22.5,15 L22.5,17.5 L26,17.5 L26,20 L22.5,20 L22.5,22.5 L20,22.5 L20,12.5 L27.5,12.5 Z M13.75,15 L13.75,20 C15.12875,20 16.25,18.87875 16.25,17.5 C16.25,16.1225 15.12875,15 13.75,15 L13.75,15 Z M6.25,15 L5,15 L5,17.5 L6.25,17.5 C6.93875,17.5 7.5,16.94 7.5,16.25 C7.5,15.56 6.93875,15 6.25,15 L6.25,15 Z M20.5175,1.25 L26.25,6.9825 L26.25,10 L23.75,10 L23.75,8.75 L18.75,8.75 L18.75,3.75 L6.25,3.75 L6.25,10 L3.75,10 L3.75,3.75 C3.75,2.3725 4.87125,1.25 6.25,1.25 L6.25,1.25 L20.5175,1.25 Z" id="path-1"></path>
</svg>