<?xml version="1.0" encoding="UTF-8"?>
<svg width="30px" height="30px" viewBox="0 0 30 30" version="1.1" xmlns="http://www.w3.org/2000/svg" xmlns:xlink="http://www.w3.org/1999/xlink">
        <path d="M13.133555,4.23206029 L13.3815695,4.23206029 L13.3815695,4.00771835 C13.2946739,4.07776605 13.2123041,4.15254669 13.133555,4.23206029 L13.133555,4.23206029 Z M14.7085377,4.23206029 L15.5313304,4.23206029 L15.5313304,3.42367204 C15.2534455,3.37728911 14.9855174,3.37634252 14.7058222,3.42083227 L14.7085377,4.23206029 Z M16.8601089,4.23206029 L17.0882098,4.23206029 C17.0157968,4.15822624 16.9397632,4.08912513 16.8601089,4.02381039 L16.8601089,4.23206029 Z M12.2682197,6.29941384 L13.3815695,6.29941384 L13.3815695,5.62070849 L12.3623566,5.62070849 C12.3180036,5.80056067 12.2899436,5.98325263 12.2790816,6.16594459 L12.2682197,6.29941384 Z M14.7094428,6.29941384 L15.5313304,6.29941384 L15.5313304,5.6197619 L14.7094428,5.6197619 L14.7094428,6.29941384 Z M16.8601089,6.29941384 L17.9508297,6.29941384 L17.9426832,6.16405141 C17.9309161,5.98135945 17.9028561,5.79866749 17.8594083,5.62070849 L16.8601089,5.62070849 L16.8601089,6.29941384 Z M12.1170575,8.32511741 L13.3815695,8.32511741 L13.3815695,7.68711545 L12.1650311,7.68711545 L12.1170575,8.32511741 Z M16.8601089,8.32511741 L18.0648801,8.32511741 L18.0286736,7.68711545 L16.8601089,7.68711545 L16.8601089,8.32511741 Z M14.7094428,8.32511741 L15.5313304,8.32511741 L15.5313304,7.68806204 L14.7094428,7.68806204 L14.7094428,8.32511741 Z M11.9658954,10.350821 L13.3815695,10.350821 L13.3815695,9.71376561 L12.013869,9.71376561 L11.9658954,10.350821 Z M14.7094428,10.350821 L15.5313304,10.350821 L15.5313304,9.71281902 L14.7094428,9.71281902 L14.7094428,10.350821 Z M16.8601089,10.350821 L18.1789306,10.350821 L18.1427241,9.71376561 L16.8601089,9.71376561 L16.8601089,10.350821 Z M14.7094428,12.3765246 L15.5313304,12.3765246 L15.5313304,11.7385226 L14.7094428,11.7385226 L14.7094428,12.3765246 Z M16.8601089,12.3765246 L17.9300109,12.3765246 C18.047682,12.2799723 18.1626377,12.1872065 18.275783,12.0972804 L18.2567746,11.7394692 L16.8601089,11.7394692 L16.8601089,12.3765246 Z M11.8292159,12.1853133 C11.907965,12.2496814 11.9894296,12.3149962 12.0708942,12.3822041 L13.3815695,12.3784177 L13.3815695,11.7394692 L11.8627069,11.7394692 L11.8292159,12.1853133 Z M14.7094428,14.9285324 C14.8062952,15.0392835 14.9022425,15.1509812 14.9972845,15.2655186 C15.172886,15.0553755 15.351203,14.850912 15.5313304,14.652128 L15.5313304,13.7651728 L14.7094428,13.7651728 L14.7094428,14.9285324 Z M15.8454218,16.3654567 C16.6700248,17.529763 17.2782939,18.7082681 17.6539364,19.8744675 C18.1671635,21.4685259 18.3943593,22.8798922 18.3328082,24.0877417 C18.5862537,23.7280373 18.8315528,23.3361488 19.0678002,22.9130229 C21.0673041,19.3311246 20.7314888,14.3274475 20.4644659,12.1853133 C19.3674089,12.9350129 17.4448438,14.395602 15.8454218,16.3654567 L15.8454218,16.3654567 Z M15.6254673,26.4750428 L15.7540003,26.4210871 C16.1993403,26.2081043 16.5451123,25.8474533 16.7252397,25.4053956 C17.0592446,24.588488 17.2737681,23.044599 16.3957605,20.3184185 C15.1276279,16.3796556 11.2680151,13.3732843 9.53553415,12.1853133 C9.26760606,14.3265009 8.92998045,19.3273383 10.9312947,22.9130229 C12.3180036,25.3978228 13.5707485,26.2450213 14.3781534,26.5185859 C14.7447442,26.6444825 15.1457312,26.6397495 15.5367613,26.5072269 L15.6254673,26.4750428 Z M15.9495154,27.8267739 L15.8264133,27.8580114 C15.5720627,27.9469909 15.2498248,28 14.9339231,28 C14.6053492,28 14.281301,27.9460443 13.9681148,27.8409728 L13.9681148,27.8409728 C12.9407554,27.4907343 11.3802553,26.4740962 9.78354867,23.6116067 C8.2873151,20.9270761 7.98770632,17.6092766 8.00037859,15.2986493 C8.01486119,12.8034369 8.37059004,10.9803036 8.38507264,10.9045764 C8.42761528,10.6887538 8.56791546,10.5051152 8.75890475,10.4142425 C8.95079919,10.3214767 9.17437432,10.3318892 9.35902747,10.4388539 C9.38165653,10.4530528 9.85415134,10.7285106 10.5683245,11.2330433 L10.9539237,6.06749918 C11.0933188,3.78905596 12.9190315,2 15.1104298,2 C17.3027333,2 19.1293512,3.79094914 19.2687462,6.07885827 L19.5520621,11.1469036 C20.2137358,10.6868606 20.638257,10.4407471 20.6427829,10.4379073 C20.827436,10.3309426 21.0510111,10.3224233 21.2420004,10.4142425 C21.4320845,10.5060618 21.5723847,10.6897004 21.6149274,10.9045764 C21.62941,10.9812502 21.986044,12.8062766 21.9996214,15.2995959 C22.0122937,17.6102232 21.7126849,20.9270761 20.2164513,23.6116067 C18.6867268,26.3529326 17.0981666,27.3989151 16.0355059,27.7955365 L15.9495154,27.8267739 Z" id="path-1"></path>
</svg>