<?xml version="1.0" encoding="UTF-8"?>
<svg width="30px" height="30px" viewBox="0 0 30 30" version="1.1" xmlns="http://www.w3.org/2000/svg" xmlns:xlink="http://www.w3.org/1999/xlink">
        <path d="M19.9957334,9.1336176 C19.954037,9.11282985 19.9123406,9.08684528 19.8706444,9.05566366 C19.828948,9.02448204 19.7976758,8.97770973 19.7768278,8.91534672 C19.7142834,8.83219596 19.6830111,8.74904497 19.6830111,8.66589422 C19.6830111,8.58274346 19.7038593,8.49959247 19.7455557,8.41644172 C19.7664039,8.37486622 19.792464,8.33848778 19.8237363,8.30730616 C19.8550086,8.27612454 19.8810688,8.25013997 19.9019169,8.22935223 C19.9227651,8.20856448 19.9384012,8.19297379 19.9488253,8.18257991 C19.9592493,8.17218606 19.9748854,8.16698913 19.9957336,8.16698913 C20.0999743,8.10462611 20.2042153,8.031869 20.3084565,7.94871825 C20.4126972,7.86556749 20.5377852,7.76162876 20.6837221,7.63690205 C20.7045703,7.59532656 20.7306304,7.56414494 20.7619027,7.54335742 C20.793175,7.52256967 20.8296592,7.49138805 20.8713556,7.44981279 C20.8713556,7.42902504 20.8974158,7.39784342 20.9495362,7.35626816 C21.0016567,7.31469267 21.0277168,7.28351105 21.0277168,7.26272353 C21.3195906,6.97169599 21.5697685,6.74303215 21.7782504,6.57672973 C21.9867323,6.41042798 22.2160611,6.275309 22.4662389,6.17137027 C22.6747209,6.08821951 22.8988391,6.03105332 23.1385912,5.9998717 C23.3783457,5.96869008 23.6233107,5.97388714 23.8734885,6.01546249 C23.8943367,5.49576883 23.9933655,5.08001619 24.1705752,4.76819999 C24.3477846,4.4563838 24.6448712,4.21732677 25.0618328,4.05102434 C25.1869217,3.98866133 25.3120106,3.98346428 25.4370984,4.03543355 C25.5621874,4.08740292 25.656004,4.1861446 25.7185488,4.33165883 C25.7602452,4.45638508 25.7550333,4.58630678 25.7029127,4.72142736 C25.6507922,4.85654748 25.5621875,4.95528893 25.4370986,5.01765263 C25.2077675,5.12159113 25.0514072,5.26710513 24.9680154,5.45419393 C24.8846228,5.64128342 24.8533505,5.95309893 24.8741987,6.38964024 C25.2077684,6.5975177 25.4579463,6.88854524 25.6247323,7.26272285 C25.7915176,7.63690274 25.9061827,8.06305085 25.9687277,8.54116719 C25.9895759,8.81140607 26,9.07644949 26,9.33629746 C26,9.59614315 25.9895759,9.88197523 25.9687277,10.1937914 C25.9687277,10.2145792 25.9635157,10.2405637 25.9530916,10.2717454 C25.9426675,10.302927 25.9374555,10.3289115 25.9374555,10.3496993 C25.9374555,10.370487 25.9374555,10.3860777 25.9374555,10.3964716 C25.9374555,10.4068655 25.9374555,10.4224562 25.9374555,10.4432439 C25.9374555,10.4432439 25.9374555,10.4484409 25.9374555,10.4588347 C25.9374555,10.4692286 25.9374555,10.4848193 25.9374555,10.505607 C25.9374555,10.5263948 25.9374555,10.5419855 25.9374555,10.5523793 C25.9374555,10.5627732 25.9374555,10.5783639 25.9374555,10.5991517 C25.9374555,10.5991517 25.9374555,10.5887578 25.9374555,10.56797 C25.9374555,10.6303331 25.9322434,10.6874992 25.9218193,10.7394686 C25.9113953,10.791438 25.9061832,10.8382103 25.9061832,10.8797855 C25.8436389,11.0252995 25.749822,11.1344358 25.6247328,11.2071927 C25.4996439,11.2799498 25.3641316,11.2851466 25.2181947,11.2227835 C25.1348021,11.2019957 25.0774697,11.1760111 25.0461974,11.1448295 C25.0149252,11.1136479 24.9680168,11.0564817 24.9054725,10.973331 C24.8220799,12.1166547 24.665718,13.1768261 24.4363893,14.1538475 C24.2070582,15.1308688 23.9099739,16.0455242 23.5451317,16.8978136 C23.1802894,17.7501098 22.7372659,18.5400401 22.2160611,19.2676066 C21.7157054,19.9951777 21.1528046,20.6603829 20.5273611,21.2632266 C19.0471431,22.6767915 17.5564948,23.7317743 16.0554276,24.4281659 C14.5543605,25.1245552 12.7509985,25.6182624 10.6453415,25.90929 C9.97819978,25.9924407 9.27978784,26.0184255 8.55010109,25.9872439 C7.82041434,25.9560623 7.15327491,25.8885022 6.54867823,25.7845637 C6.38189292,25.763776 6.26201501,25.6702311 6.18904656,25.5039294 C6.11607789,25.3376276 6.12129005,25.1713268 6.20468269,25.0050244 C6.39231619,24.6516331 6.87703496,24.0903644 7.65884105,23.3212206 C8.44064714,22.5520767 9.2797877,21.7725373 10.176265,20.9826048 C9.86354214,20.9618171 9.55082153,20.9358325 9.23809864,20.9046509 C8.92537574,20.8734693 8.60222944,20.8370908 8.26865973,20.7955153 C7.60151801,20.7331523 6.91352948,20.5928354 6.20469184,20.3745649 C5.49585419,20.1562936 4.859985,19.9120372 4.29708653,19.6417984 C4.15114941,19.5794354 4.05733209,19.4547093 4.01563616,19.2676208 C3.97393977,19.0805313 4.01563608,18.9246227 4.14072509,18.7998976 C4.34920702,18.5712315 4.77659428,18.2594176 5.42288689,17.8644513 C6.04833039,17.469485 6.76238088,17.0537301 7.56503379,16.6171888 C8.3676867,16.1806475 9.19639928,15.7648926 10.051167,15.3699263 C10.9059415,14.9541714 11.6564751,14.6111733 12.3027677,14.3409345 C13.1783913,13.9667546 14.0175319,13.5613951 14.8201916,13.1248538 C15.6228445,12.6883125 16.3890121,12.2205893 17.1186943,11.7216843 C17.7024418,11.3267181 18.2497063,10.9161609 18.7604855,10.4900128 C19.2712646,10.0638647 19.7455606,9.63252109 20.1833713,9.19597751 C20.1416749,9.19597751 20.1051907,9.19078057 20.0739184,9.18038672 C20.0426461,9.16999287 20.016586,9.15440215 19.9957378,9.1336144 L19.9957334,9.1336176 Z M19.5579245,11.1915991 C19.2660489,11.4410538 18.9637517,11.6853086 18.6510288,11.9243679 C18.3383059,12.1634272 18.0151596,12.3972888 17.6815899,12.6259526 C16.9310563,13.1248576 16.1388268,13.6029739 15.304906,14.0603039 C14.4709805,14.5176339 13.5953546,14.9333865 12.6780328,15.3075664 C12.177677,15.5154439 11.5939295,15.7752895 10.9267878,16.0871057 C10.2804952,16.3989219 9.61856628,16.7315245 8.94100116,17.0849157 C8.26343604,17.438307 7.62235628,17.781305 7.0177596,18.1139076 C6.43401203,18.4465102 5.94407973,18.7479332 5.54796498,19.018172 C6.00662476,19.1844738 6.48091852,19.3351837 6.97085082,19.4703043 C7.46078313,19.6054244 7.93507688,19.6937722 8.39373667,19.7353477 C8.47712921,19.7561354 8.56052198,19.7717261 8.64391453,19.78212 C8.72730707,19.7925139 8.81069984,19.7977108 8.89409238,19.7977108 C8.83154803,19.6521968 8.78463971,19.5014855 8.75336742,19.3455786 C8.72209514,19.1896709 8.70645911,19.0285669 8.70645911,18.8622645 C8.70645911,18.2802094 8.90451694,17.7865022 9.30063237,17.3811404 C9.69674712,16.9757787 10.1658303,16.7730989 10.707882,16.7730989 C10.9580598,16.7730989 11.1926014,16.8146744 11.4115068,16.8978252 C11.6304128,16.980976 11.8232578,17.0953088 11.9900438,17.2408232 C12.0734363,16.7211296 12.3027667,16.289786 12.6780323,15.946788 C13.0533002,15.6037899 13.4911109,15.432292 13.9914666,15.432292 C14.2416445,15.432292 14.4761861,15.4738675 14.6950914,15.5570183 C14.9139974,15.6401691 15.1068424,15.7545019 15.2736284,15.9000163 C15.2736284,15.8792286 15.2736284,15.848047 15.2736284,15.8064717 C15.2736284,15.7648962 15.2736284,15.7337146 15.2736284,15.7129271 C15.2736284,15.130872 15.4664741,14.631967 15.8521654,14.2162121 C16.2378568,13.8004572 16.7121528,13.5925797 17.2750513,13.5925797 C17.4001402,13.5925797 17.5200163,13.6029736 17.6346829,13.6237613 C17.7493478,13.6445491 17.8588009,13.6757307 17.9630421,13.7173059 C18.21322,13.3847034 18.4477616,13.0469031 18.6666669,12.703905 C18.8855729,12.360907 19.099267,12.0127135 19.3077467,11.6593223 C19.349443,11.5761715 19.3911394,11.4982176 19.4328356,11.4254607 C19.474532,11.3527036 19.5162284,11.2747499 19.5579245,11.1915991 L19.5579245,11.1915991 Z M12.9282038,18.6751774 C12.9699001,18.6543885 13.0011724,18.6387978 13.0220204,18.628404 C13.0428686,18.6180101 13.0637168,18.6024194 13.084565,18.5816316 C13.2721985,18.4361177 13.4494072,18.2958018 13.6161932,18.1606813 C13.7829785,18.0255611 13.9497629,17.8852447 14.1165489,17.7397309 C14.3250308,17.5734291 14.5282999,17.4071283 14.7263584,17.2408259 C14.9244163,17.0745241 15.1172626,16.8978278 15.3048954,16.710739 C15.1589583,16.4820729 14.9713257,16.3001818 14.7419947,16.1650613 C14.5126637,16.0299411 14.2624858,15.9623811 13.9914611,15.9623811 C13.5744973,15.9623811 13.2200785,16.1182887 12.9282047,16.4301042 C12.6363309,16.7419204 12.490394,17.116098 12.490394,17.5526416 C12.490394,17.6150046 12.495606,17.6773679 12.5060301,17.7397309 C12.5164542,17.8020939 12.5216662,17.8644571 12.5216662,17.9268201 C12.5633626,17.9891832 12.5946349,18.0515464 12.6154829,18.1139094 C12.6363311,18.1762724 12.6467552,18.2386357 12.6467552,18.3009987 C12.6884515,18.3633617 12.7353599,18.4309217 12.7874801,18.5036789 C12.8396006,18.576436 12.8865089,18.6336022 12.9282051,18.6751774 L12.9282038,18.6751774 Z M11.4271366,19.9224398 C11.5522255,19.7977125 11.6773145,19.6833795 11.8024023,19.5794407 C11.9274912,19.4755022 12.0525801,19.3715635 12.1776679,19.2676245 C12.1985161,19.2052615 12.2141521,19.1428983 12.2245762,19.0805353 C12.2350003,19.0181723 12.2402123,18.9454152 12.2402123,18.8622644 C12.2402123,18.7999014 12.2350003,18.7375381 12.2245762,18.6751751 C12.2141521,18.6128121 12.1985161,18.5504489 12.1776679,18.4880859 C12.1568197,18.4257229 12.1359715,18.3633596 12.1151233,18.3009966 C12.0942751,18.2386336 12.0734269,18.1866642 12.0525787,18.1450887 C11.9274898,17.8748499 11.7450687,17.6617747 11.5053142,17.5058677 C11.2655598,17.3499601 10.9997457,17.2720061 10.7078719,17.2720061 C10.290908,17.2720061 9.93648922,17.4279138 9.64461543,17.7397293 C9.35274165,18.0515455 9.20680475,18.4257231 9.20680475,18.8622667 C9.20680475,19.0493562 9.23286488,19.2260511 9.28498536,19.3923535 C9.33710585,19.5586553 9.41528623,19.7145629 9.51952696,19.8600767 C9.85309667,19.8808644 10.176243,19.8964551 10.4889659,19.906849 C10.8016888,19.9172428 11.1144094,19.9224398 11.4271323,19.9224398 L11.4271366,19.9224398 Z M15.8365113,16.1806627 C16.170081,15.8480601 16.4880168,15.5154553 16.790314,15.1828527 C17.0926112,14.8502501 17.3792744,14.5072521 17.6503014,14.1538608 C17.587757,14.1538608 17.5252124,14.1486639 17.4626681,14.1382701 C17.4001237,14.1278762 17.3375792,14.1226793 17.2750348,14.1226793 C16.858071,14.1226793 16.5036521,14.2785869 16.2117783,14.5904024 C15.9199046,14.9022186 15.7739677,15.2763962 15.7739677,15.7129398 C15.7739677,15.7960906 15.7791797,15.8792415 15.7896038,15.9623923 C15.8000279,16.0455431 15.8156639,16.1183002 15.8365121,16.1806632 L15.8365113,16.1806627 Z" id="path-1"></path>
</svg>