<?xml version="1.0" encoding="UTF-8"?>
<svg width="30px" height="30px" viewBox="0 0 30 30" version="1.1" xmlns="http://www.w3.org/2000/svg" xmlns:xlink="http://www.w3.org/1999/xlink">
        <path d="M21.2728752,5.34496121 C21.664394,5.34496121 21.9836006,5.64389394 21.9836006,6.01218688 L21.9836006,6.01218688 L21.9836006,8.82860213 C22.7501098,9.45479782 23.288319,10.2910279 23.5228171,11.2142026 C23.5961623,11.209318 23.6684745,11.2063873 23.7418197,11.2063873 L23.7418197,11.2063873 L25.5785491,11.2063873 L25.5785491,8.74751907 C25.5785491,8.37922613 25.8977557,8.0802934 26.2903076,8.0802934 C26.6818264,8.0802934 27,8.37922613 27,8.74751907 L27,8.74751907 L27,13.3155238 C26.998967,13.712147 26.8884326,14.1019318 26.6849255,14.4448253 C26.8750032,14.5649845 27,14.7691575 27,14.9997069 L27,14.9997069 L27,16.4416178 C26.998967,16.8382409 26.8884326,17.2280258 26.6849255,17.5709192 C26.8750032,17.6901015 27,17.8942745 27,18.1267778 L27,18.1267778 L27,19.5677117 C26.998967,19.9643349 26.8884326,20.3541197 26.6838925,20.6960362 C26.8750032,20.8161954 27,21.0203685 27,21.2528717 C26.9979339,23.3414932 25.1797991,25.0442375 22.9453527,25.0461913 L22.9453527,25.0461913 L21.9836006,25.0461913 L21.9836006,26.3317974 C21.9836006,26.7000904 21.664394,27 21.2728752,27 C20.8813564,27 20.5621497,26.7000904 20.5621497,26.3317974 L20.5621497,26.3317974 L20.5621497,25.0461913 L19.5993647,25.0461913 C17.3649183,25.0442375 15.5467834,23.3414932 15.5436843,21.2528717 C15.5436843,21.0203685 15.6697141,20.8161954 15.8608249,20.6960362 C15.6562847,20.3531428 15.5457504,19.9643349 15.5436843,19.5686886 L15.5436843,19.5686886 L15.5436843,18.1267778 C15.5436843,17.8942745 15.6697141,17.6901015 15.8608249,17.5699423 C15.6562847,17.2280258 15.5457504,16.8382409 15.5436843,16.4425947 L15.5436843,16.4425947 L15.5436843,14.9997069 C15.5436843,14.7691575 15.6697141,14.5640076 15.8608249,14.4438484 C15.6562847,14.1009549 15.5457504,13.712147 15.5436843,13.3165007 L15.5436843,13.3165007 L15.5436843,8.74751907 C15.5436843,8.37922613 15.8628909,8.0802934 16.2544098,8.0802934 C16.6469616,8.0802934 16.9661682,8.37922613 16.9661682,8.74751907 L16.9661682,8.74751907 L16.9661682,11.2063873 L18.8018646,11.2063873 C18.8752098,11.2063873 18.948555,11.209318 19.0219003,11.2142026 C19.2563983,10.2910279 19.7956406,9.45479782 20.5621497,8.82762523 L20.5621497,8.82762523 L20.5621497,6.01218688 C20.5621497,5.64389394 20.8813564,5.34496121 21.2728752,5.34496121 Z M8.72919088,3 C9.12070969,3 9.43991632,3.29990964 9.43991632,3.66820258 L9.43991632,3.66820258 L9.43991632,6.48364092 C10.2064255,7.10983661 10.7446347,7.94606674 10.9780997,8.87021826 C11.051445,8.86435683 11.1247902,8.86240302 11.1981354,8.86142612 L11.1981354,8.86142612 L13.0348648,8.86142612 L13.0348648,6.40353477 C13.0348648,6.03524182 13.3540714,5.73533219 13.7455902,5.73533219 C14.1381421,5.73533219 14.4573487,6.03524182 14.4573487,6.40353477 L14.4573487,6.40353477 L14.4573487,10.9715395 C14.4552827,11.3671858 14.3447483,11.7569706 14.1402082,12.099864 C14.3313189,12.2200233 14.4573487,12.4241963 14.4573487,12.6557226 L14.4573487,12.6557226 L14.4573487,14.0976334 C14.4552827,14.4942566 14.3447483,14.8830645 14.1402082,15.225958 C14.3313189,15.3461172 14.4573487,15.5502902 14.4573487,15.7818166 L14.4573487,15.7818166 L14.4573487,17.2237274 C14.4552827,17.6203505 14.3447483,18.0091585 14.1402082,18.351075 C14.3313189,18.4712342 14.4573487,18.6754072 14.4573487,18.9079105 C14.4542496,20.996532 12.6361148,22.6992763 10.4016683,22.7012301 L10.4016683,22.7012301 L9.43991632,22.7012301 L9.43991632,26.3314067 C9.43991632,26.6996996 9.12070969,26.9996092 8.72919088,26.9996092 C8.33663903,26.9996092 8.0174324,26.6996996 8.0174324,26.3314067 L8.0174324,26.3314067 L8.0174324,22.7012301 L7.05568038,22.7012301 C4.82226699,22.6992763 3.00309909,20.9975089 3,18.9079105 C3,18.6754072 3.1260298,18.4712342 3.31714057,18.351075 C3.1126004,18.0101354 3.00206606,17.6203505 3,17.2247043 L3,17.2247043 L3,15.7818166 C3,15.5502902 3.1260298,15.3461172 3.31714057,15.225958 C3.1126004,14.8830645 3.00206606,14.4952335 3,14.0986104 L3,14.0986104 L3,12.6557226 C3,12.4241963 3.1260298,12.2200233 3.31714057,12.099864 C3.1126004,11.7569706 3.00206606,11.3681627 3,10.9725164 L3,10.9725164 L3,6.40353477 C3,6.03524182 3.31920663,5.73533219 3.71072545,5.73533219 C4.10224426,5.73533219 4.42248392,6.03524182 4.42248392,6.40353477 L4.42248392,6.40353477 L4.42248392,8.86142612 L6.25714728,8.86142612 C6.33152553,8.86240302 6.40487074,8.86435683 6.47821596,8.87021826 C6.71271403,7.94606674 7.25092327,7.10983661 8.0174324,6.48364092 L8.0174324,6.48364092 L8.0174324,3.66820258 C8.0174324,3.29990964 8.33663903,3 8.72919088,3 Z M25.4804111,21.9191205 L23.7418197,21.9191205 C22.7738695,21.9210743 21.9846337,22.6576602 21.9836006,23.5612967 L21.9836006,23.5612967 L21.9836006,23.710763 L22.9453527,23.710763 C24.1271403,23.7088092 25.1612045,22.9595236 25.4804111,21.9191205 L25.4804111,21.9191205 Z M18.8018646,21.9191205 L17.0643062,21.9191205 C17.3835128,22.9595236 18.417577,23.7088092 19.5993647,23.710763 L19.5993647,23.710763 L20.5621497,23.710763 L20.5621497,23.5612967 C20.5611167,22.6576602 19.7708479,21.9210743 18.8018646,21.9191205 L18.8018646,21.9191205 Z M12.9356938,19.5751362 L11.1981354,19.5751362 C10.2291521,19.5761131 9.43991632,20.3126989 9.43991632,21.2163355 L9.43991632,21.2163355 L9.43991632,21.3658018 L10.4016683,21.3658018 C11.583456,21.363848 12.6175202,20.6145624 12.9356938,19.5751362 L12.9356938,19.5751362 Z M6.25818032,19.5751362 L4.52165492,19.5751362 C4.83982852,20.6145624 5.87389272,21.363848 7.05671341,21.3658018 L7.05671341,21.3658018 L8.0174324,21.3658018 L8.0174324,21.2163355 C8.01639937,20.3126989 7.22716355,19.5761131 6.25818032,19.5751362 L6.25818032,19.5751362 Z M18.8101289,18.7930265 L16.9661682,18.7930265 L16.9661682,19.5677117 C16.9672013,20.1274779 17.455825,20.5836922 18.0570491,20.5846691 L18.0570491,20.5846691 L18.8028977,20.5846691 C19.4289145,20.5846691 20.0435681,20.7624657 20.5621497,21.0838672 L20.5621497,21.0838672 L20.5621497,20.4361797 C20.5621497,20.3502121 20.5528525,20.2652214 20.537357,20.1812076 C20.405129,19.3860075 19.6634126,18.7930265 18.8101289,18.7930265 L18.8101289,18.7930265 Z M25.5785491,18.7930265 L23.7325224,18.7930265 C22.8689083,18.7930265 22.1468196,19.3674463 22.0125255,20.1626464 C21.9918649,20.25936 21.9836006,20.3472814 21.9836006,20.4361797 L21.9836006,20.4361797 L21.9836006,21.0828903 C22.5011492,20.7624657 23.1158028,20.5846691 23.7418197,20.5846691 L23.7418197,20.5846691 L24.4876682,20.5846691 C25.0888923,20.5836922 25.5785491,20.1274779 25.5785491,19.5677117 L25.5785491,19.5677117 L25.5785491,18.7930265 Z M6.2674776,16.4490422 L4.42248392,16.4490422 L4.42248392,17.2237274 C4.42248392,17.7834936 4.9121407,18.2397079 5.51336484,18.2397079 L5.51336484,18.2397079 L6.25818032,18.2397079 C6.88523024,18.2397079 7.49988378,18.4175045 8.0174324,18.738906 L8.0174324,18.738906 L8.0174324,18.0912184 C8.0174324,18.0052509 8.00916815,17.9202602 7.99263965,17.8372233 C7.86144469,17.0410463 7.12076134,16.4490422 6.2674776,16.4490422 L6.2674776,16.4490422 Z M13.0348648,16.4490422 L11.1888381,16.4490422 C10.325224,16.4490422 9.60313525,17.023462 9.46780817,17.8176852 C9.44818057,17.9124449 9.43991632,18.0013432 9.43991632,18.0912184 L9.43991632,18.0912184 L9.43991632,18.7379291 C9.95746494,18.4175045 10.5721185,18.2397079 11.1981354,18.2397079 L11.1981354,18.2397079 L11.9439839,18.2397079 C12.545208,18.2397079 13.0348648,17.7834936 13.0348648,17.2237274 L13.0348648,17.2237274 L13.0348648,16.4490422 Z M18.8070298,15.6679095 L16.9661682,15.6679095 L16.9661682,16.4416178 C16.9672013,17.0013839 17.455825,17.4585752 18.0570491,17.4585752 L18.0570491,17.4585752 L18.814261,17.4585752 C19.4351127,17.4585752 20.0456342,17.634418 20.5621497,17.9519119 L20.5621497,17.9519119 L20.5621497,17.3452543 C20.5735131,16.6262527 20.0952196,15.9902879 19.3720978,15.7577847 C19.1882183,15.6981935 18.9981405,15.6679095 18.8070298,15.6679095 L18.8070298,15.6679095 Z M25.5785491,15.6679095 L23.7397536,15.6679095 C23.5476098,15.6679095 23.3585651,15.6972166 23.1777847,15.7558309 C22.4618941,15.9814958 21.9825676,16.6057377 21.983599,17.3100857 L21.983599,17.3100857 L21.983599,17.950935 C22.5001162,17.6334411 23.1116707,17.4585752 23.7345885,17.4585752 L23.7345885,17.4585752 L24.4876682,17.4585752 C25.0888923,17.4585752 25.5785491,17.0023609 25.5785491,16.4416178 L25.5785491,16.4416178 L25.5785491,15.6679095 Z M6.25611425,13.3229483 L4.42248392,13.3229483 L4.42248392,14.0976334 C4.42248392,14.6573996 4.9121407,15.113614 5.51336484,15.113614 L5.51336484,15.113614 L6.2674776,15.113614 C6.88936236,15.113614 7.50194985,15.2894568 8.0174324,15.6069507 L8.0174324,15.6069507 L8.0174324,15.0002931 C8.02363059,14.5597092 7.83975104,14.1308482 7.51124713,13.8182388 C7.18274321,13.5056294 6.72614344,13.325879 6.25611425,13.3229483 L6.25611425,13.3229483 Z M13.0348648,13.3229483 L11.2002014,13.3229483 C10.2301852,13.3239252 9.43991632,14.0605111 9.43991632,14.9651245 L9.43991632,14.9651245 L9.43991632,15.6059738 C9.95643191,15.2894568 10.5679864,15.113614 11.1909042,15.113614 L11.1909042,15.113614 L11.9439839,15.113614 C12.545208,15.113614 13.0348648,14.6573996 13.0348648,14.0976334 L13.0348648,14.0976334 L13.0348648,13.3229483 Z M25.5785491,12.5418156 L23.7325224,12.5418156 C23.5393456,12.5418156 23.3513339,12.5720996 23.1726195,12.6316908 C22.458795,12.8602864 21.9825676,13.4835514 21.983599,14.1830149 L21.983599,14.1830149 L21.983599,14.8297256 C22.2119005,14.6880744 22.458795,14.5737766 22.7180858,14.4917167 C23.0434906,14.386211 23.386457,14.3324813 23.7345885,14.3324813 L23.7345885,14.3324813 L24.4876682,14.3324813 C25.0888923,14.3315044 25.5785491,13.87529 25.5785491,13.3155238 L25.5785491,13.3155238 L25.5785491,12.5418156 Z M18.9455851,12.5403655 L18.8039307,12.5418156 L16.9661682,12.5418156 L16.9661682,13.3155238 C16.9672013,13.87529 17.455825,14.3315044 18.0570491,14.3324813 L18.0570491,14.3324813 L18.8121949,14.3324813 C19.1613595,14.3324813 19.5053588,14.3871879 19.8338628,14.4946474 C20.0900545,14.5757304 20.3348829,14.6890513 20.5621514,14.8297256 L20.5621514,14.8297256 L20.5621514,14.1830149 C20.5631828,13.4855052 20.0890215,12.8632171 19.3813951,12.6336446 C19.1923504,12.5711227 18.9888433,12.5252082 18.8039307,12.5418156 Z M13.0348648,10.1968544 L11.1919372,10.1968544 C10.9977273,10.1968544 10.8086826,10.2271384 10.6268691,10.2867296 C9.91511066,10.5153252 9.43888329,11.1385902 9.43991465,11.8380537 L9.43991465,11.8380537 L9.43991465,12.488672 C9.95643191,12.1662935 10.5700524,11.98752 11.1960693,11.98752 L11.1960693,11.98752 L11.9439839,11.98752 C12.545208,11.98752 13.0348648,11.5313057 13.0348648,10.9715395 L13.0348648,10.9715395 L13.0348648,10.1968544 Z M6.25921335,10.1968544 L4.42248392,10.1968544 L4.42248392,10.9715395 C4.42248392,11.5303288 4.9121407,11.98752 5.51336484,11.98752 L5.51336484,11.98752 L6.25921335,11.98752 C6.88523024,11.98752 7.49988378,12.1653166 8.01743409,12.4867182 L8.01743409,12.4867182 L8.01743409,11.8390306 C8.01846543,11.1415209 7.54430412,10.5182559 6.8377108,10.2896603 C6.64969913,10.2261615 6.46168746,10.1988082 6.25921335,10.1968544 L6.25921335,10.1968544 Z M21.2728752,10.0272638 C20.8255727,10.4668707 20.5177294,11.015891 20.3875675,11.6098488 C20.7284678,11.7935068 21.0280468,12.0328484 21.2728752,12.3181045 C21.5177036,12.0328484 21.8172826,11.7935068 22.1571499,11.6098488 C22.0269879,11.015891 21.7191447,10.4658938 21.2728752,10.0272638 Z M8.72919088,7.68230256 C8.28085535,8.12190952 7.97404509,8.67092977 7.84388316,9.26488762 C8.18478345,9.44854563 8.48436249,9.6878872 8.72919088,9.97314327 C8.97401927,9.6888641 9.27256527,9.44854563 9.61243253,9.26586452 C9.48330363,8.67092977 9.17649338,8.12190952 8.72919088,7.68230256 Z" id="path-1"></path>
</svg>